Introduction to R Data Analysis
…
Select Columns

select(.data = mpg,
       year, cty, hwy, manufacturer)

# A tibble: 234 × 4
    year   cty   hwy manufacturer
   <int> <int> <int> <chr>       
 1  1999    18    29 audi        
 2  1999    21    29 audi        
 3  2008    20    31 audi        
 4  2008    21    30 audi        
 5  1999    16    26 audi        
 6  1999    18    26 audi        
 7  2008    18    27 audi        
 8  1999    18    26 audi        
 9  1999    16    25 audi        
10  2008    20    28 audi        
# ℹ 224 more rows

Filter Rows

filter(.data = mpg,
       year == 2008)

# A tibble: 117 × 11
   manufacturer model      displ  year   cyl trans drv     cty   hwy fl    class
   <chr>        <chr>      <dbl> <int> <int> <chr> <chr> <int> <int> <chr> <chr>
 1 audi         a4           2    2008     4 manu… f        20    31 p     comp…
 2 audi         a4           2    2008     4 auto… f        21    30 p     comp…
 3 audi         a4           3.1  2008     6 auto… f        18    27 p     comp…
 4 audi         a4 quattro   2    2008     4 manu… 4        20    28 p     comp…
 5 audi         a4 quattro   2    2008     4 auto… 4        19    27 p     comp…
 6 audi         a4 quattro   3.1  2008     6 auto… 4        17    25 p     comp…
 7 audi         a4 quattro   3.1  2008     6 manu… 4        15    25 p     comp…
 8 audi         a6 quattro   3.1  2008     6 auto… 4        17    25 p     mids…
 9 audi         a6 quattro   4.2  2008     8 auto… 4        16    23 p     mids…
10 chevrolet    c1500 sub…   5.3  2008     8 auto… r        14    20 r     suv  
# ℹ 107 more rows

Arrange Rows

desc() is used to arrange rows in descending order, the default is ascending

arrange(.data = mpg,
        desc(cty))

# A tibble: 234 × 11
   manufacturer model      displ  year   cyl trans drv     cty   hwy fl    class
   <chr>        <chr>      <dbl> <int> <int> <chr> <chr> <int> <int> <chr> <chr>
 1 volkswagen   new beetle   1.9  1999     4 manu… f        35    44 d     subc…
 2 volkswagen   jetta        1.9  1999     4 manu… f        33    44 d     comp…
 3 volkswagen   new beetle   1.9  1999     4 auto… f        29    41 d     subc…
 4 honda        civic        1.6  1999     4 manu… f        28    33 r     subc…
 5 toyota       corolla      1.8  2008     4 manu… f        28    37 r     comp…
 6 honda        civic        1.8  2008     4 manu… f        26    34 r     subc…
 7 toyota       corolla      1.8  1999     4 manu… f        26    35 r     comp…
 8 toyota       corolla      1.8  2008     4 auto… f        26    35 r     comp…
 9 honda        civic        1.6  1999     4 manu… f        25    32 r     subc…
10 honda        civic        1.8  2008     4 auto… f        25    36 r     subc…
# ℹ 224 more rows
…
